Name,Code,Barcode Symbology,Brand,Category Code,Cost,Price,Alert Quantity, Tax Rate Name,Tax Method,Image,Subcategory Code,Product Variants Separated by |,Custom Field 1,Custom Field 2,Custom Field 3,Custom Field 4,Custom Field 5,Custom Field 6,featured,status,free_shipment,Product Details
Dark brown sheet,76103024,code128,Splash,105,90,699,2,No Tax,exclusive,https://shoprex.com/images/srproducts/large/king-size-polyester-cotton-bed-sheet-pc-72_41394.jpg,,,,,,,,,0,1,0,"Lorem ipsum dolor sit amet, consetetur sadipscing elitr, sed diam nonumy eirmod tempor invidunt ut labore et dolore magna aliquyam erat, sed diam voluptua. At vero eos et accusam et justo duo dolores…"
Light Blue,36133024,code128,Portico,108,190,799,2,No Tax,exclusive,https://shoprex.com/images/srproducts/large/king-size-polyester-cotton-bed-sheet-pc-73_41395.jpg,,,,,,,,,0,1,0,"Lorem ipsum dolor sit amet, consetetur sadipscing elitr, sed diam nonumy eirmod tempor invidunt ut labore et dolore magna aliquyam erat, sed diam voluptua. At vero eos et accusam et justo duo dolores…"
