"Product Code","Product Name",Variant,Expected,Counted
100001,OAK/DS,"White / SK-K",-2.0000,
100002,OAK/SS,"White / SK",-1.0000,
100003,OAK/DC,,0.0000,
100004,OAK/TS,,0.0000,
100005,OAK/FS,"White / SK",-1.0000,
100006,OAK/OPC,,0.0000,
100007,OAK/UPC,,0.0000,
100008,ASH/DS,"Charcoal / SK-K",-1.0000,
100009,ASH/SS,,0.0000,
100010,ASH/DC,,0.0000,
100011,ASH/TS,,0.0000,
100012,ASH/FS,,0.0000,
100013,ASH/OPC,,0.0000,
100014,ASH/UPC,,0.0000,
100015,TUPELO/DS,,0.0000,
100016,TUPELO/SS,,0.0000,
100017,TUPELO/DC,,0.0000,
100018,TUPELO/TS,,0.0000,
100019,TUPELO/FS,,0.0000,
100020,TUPELO/OPC,,0.0000,
100021,TUPELO/UPC,,0.0000,
100022,ROBLE/DS,,0.0000,
100023,ROBLE/SS,,0.0000,
100024,ROBLE/DC,,0.0000,
100025,ROBLE/FS,,0.0000,
100026,ROBLE/OPC,,0.0000,
100027,ROBLE/UPC,,0.0000,
100028,ARGAN/DS,"White / SK",-2.0000,
100028,ARGAN/DS,"Charcoal / S",-1.0000,
100029,ARGAN/SS,,0.0000,
100030,ARGAN/DC,"White / SK-K",-4.0000,
100031,ARGAN/TS,,0.0000,
100032,ARGAN/FS,"White / SK",-1.0000,
100033,ARGAN/OPC,,0.0000,
100034,ARGAN/UPC,,0.0000,
100035,CEDRO/DS,,0.0000,
100036,CEDRO/SS,,0.0000,
100037,CEDRO/DC,,0.0000,
100038,CEDRO/TS,,0.0000,
100039,CEDRO/FS,,0.0000,
100040,CEDRO/OPC,,0.0000,
100041,CEDRO/UPC,,0.0000,
100042,OLIVE/DS,,0.0000,
100043,OLIVE/SS,,0.0000,
100044,OLIVE/DC,,0.0000,
100045,OLIVE/TS,,0.0000,
100046,OLIVE/FS,,0.0000,
100047,OLIVE/OPC,,0.0000,
100048,OLIVE/UPC,,0.0000,
100049,BONSAI/DS,,0.0000,
100050,BONSAI/SS,,0.0000,
100051,BONSAI/DC,"White / SK-K",-1.0000,
100052,BONSAI/TS,,0.0000,
100053,BONSAI/FS,,0.0000,
100054,BONSAI/OPC,,0.0000,
100055,BONSAI/UPC,,0.0000,
100056,WILLOW/DS,,0.0000,
100057,WILLOW/SS,,0.0000,
100058,WILLOW/DC,,0.0000,
100059,WILLOW/TS,,0.0000,
100060,WILLOW/FS,,0.0000,
100061,WILLOW/OPC,,0.0000,
100062,WILLOW/UPC,,0.0000,
100063,TUSA/TOWEL-SET,,0.0000,
100064,TUSA/BATH-SET,,0.0000,
100065,TUSA/BT,,0.0000,
100066,TUSA/HT,,0.0000,
100067,TUSA/FT,,0.0000,
100068,TUSA/BM,,0.0000,
100069,KENAF/TOWEL-SET,,0.0000,
100070,KENAF/BAT-SET,Charcoal/Rd,-1.0000,
100071,KENAF/BT,,0.0000,
100072,KENAF/HT,,0.0000,
100073,KENAF/FT,"White/RB / 30 cm x 30 cm",-1.0000,
100074,KENAF/BM,,0.0000,
100075,OSO/BR,,0.0000,
100076,NUBE/BR,,0.0000,
100077,TCS/EMB/COT-LIN,,0.0000,
100079,TC/COT-LIN,,0.0000,
100080,NAPKIN/EMB/CONT-LIN,,0.0000,
100081,NAPKIN/HS/COT-LIN,,0.0000,
100082,NAPKIN/STAR/COT-LIN,,0.0000,
100083,TM/COT-LIN,,0.0000,
100085,BBC/COT-LIN,,0.0000,
100086,BBC/FAN/COT-LIN,,0.0000,
100087,T-BAG/COT-LIN,,0.0000,
100089,RN/HS2/COT-LIN,,0.0000,
100090,TM/HS2/COT-LIN,,0.0000,
100091,FAB/TULIP,,0.0000,
100095,CAND/SOY/PEPP,,0.0000,
100096,CAND/SOY/SAND,,0.0000,
100097,CAND/SOY/BAMP,,0.0000,
100105,PLAYA/SL-D/100%LINO,,0.0000,
100106,HIPPIE-PANT/100%LINO,,0.0000,
100107,TATI/SL-S/100%LINO,,0.0000,
100108,MIMI/100%LINO,,0.0000,
100109,SHIRT/S-L/100%LINO,,0.0000,
100110,YUYI/HIPPIE-TOP/100%LINO,,0.0000,
100111,PEPA/100%LINO,,0.0000,
