Product Code,Net Unit Cost,Quantity,Product Variant,Tax Rate Name,Discount,Expiry
313-31001,49.85,1,Size: S,No Tax,,
313-31001,49.85,1,Size: M,No Tax,,
313-31001,49.85,1,Size: L,No Tax,,
313-31002,54.12,1,Size: S,No Tax,,
313-31002,54.12,1,Size: M,No Tax,,
313-31002,54.12,1,Size: L,No Tax,,
313-31003,40.52,1,Size: S,No Tax,,
313-31003,40.52,1,Size: M,No Tax,,
313-31003,40.52,1,Size: L,No Tax,,
313-31004,51.88,1,Size: S,No Tax,,
313-31004,51.88,1,Size: M,No Tax,,
313-31004,51.88,1,Size: L,No Tax,,
313-31005,45.91,1,Size: S,No Tax,,
313-31005,45.91,1,Size: M,No Tax,,
313-31005,45.91,1,Size: L,No Tax,,
313-31006,56.36,1,Size: S,No Tax,,
313-31006,56.36,1,Size: M,No Tax,,
313-31006,56.36,1,Size: L,No Tax,,
313-31007,51.62,1,Size: S,No Tax,,
313-31007,51.62,1,Size: M,No Tax,,
313-31007,51.62,1,Size: L,No Tax,,
313-31008,61.48,1,Size: S,No Tax,,
313-31008,61.48,1,Size: M,No Tax,,
313-31008,61.48,1,Size: L,No Tax,,
313-31009,62.77,1,Size: S,No Tax,,
313-31009,62.77,1,Size: M,No Tax,,
313-31009,62.77,1,Size: L,No Tax,,
313-31010,46.23,1,Size: S,No Tax,,
313-31010,46.23,1,Size: M,No Tax,,
313-31010,46.23,1,Size: L,No Tax,,
313-31011,49.73,1,Size: S,No Tax,,
313-31011,49.73,1,Size: M,No Tax,,
313-31011,49.73,1,Size: L,No Tax,,
313-31012,45.93,1,Size: S,No Tax,,
313-31012,45.93,1,Size: M,No Tax,,
313-31012,45.93,1,Size: L,No Tax,,
313-31013,53.15,1,Size: S,No Tax,,
313-31013,53.15,1,Size: M,No Tax,,
313-31013,53.15,1,Size: L,No Tax,,
313-31014,51.15,1,Size: S,No Tax,,
313-31014,51.15,1,Size: M,No Tax,,
313-31014,51.15,1,Size: L,No Tax,,
313-31015,53.15,1,Size: S,No Tax,,
313-31015,53.15,1,Size: M,No Tax,,
313-31015,53.15,1,Size: L,No Tax,,
313-31016,45.91,1,Size: S,No Tax,,
313-31016,45.91,1,Size: M,No Tax,,
313-31016,45.91,1,Size: L,No Tax,,
313-31017,51.65,1,Size: S,No Tax,,
313-31017,51.65,1,Size: M,No Tax,,
313-31017,51.65,1,Size: L,No Tax,,
313-31018,54.74,1,Size: S,No Tax,,
313-31018,54.74,1,Size: M,No Tax,,
313-31018,54.74,1,Size: L,No Tax,,
313-31019,63.16,1,Size: S-Blue,No Tax,,
313-31019,63.16,1,Size: M-Blue,No Tax,,
313-31019,63.16,1,Size: L-Blue,No Tax,,
313-31019,63.16,1,Size: S-White,No Tax,,
313-31019,63.16,1,Size: M- White,No Tax,,
313-31019,63.16,1,Size: L-White,No Tax,,
